%YAML 1.1
%TAG !u! tag:unity3d.com,2011:
--- !u!1 &2721478984083487026
GameObject:
  m_ObjectHideFlags: 0
  m_CorrespondingSourceObject: {fileID: 0}
  m_PrefabInstance: {fileID: 0}
  m_PrefabAsset: {fileID: 0}
  serializedVersion: 6
  m_Component:
  - component: {fileID: 2721478984083487028}
  - component: {fileID: 2721478984083487029}
  - component: {fileID: -300516905384075257}
  - component: {fileID: -1403847234173260383}
  m_Layer: 10
  m_Name: treemonster
  m_TagString: Untagged
  m_Icon: {fileID: 0}
  m_NavMeshLayer: 0
  m_StaticEditorFlags: 0
  m_IsActive: 1
--- !u!4 &2721478984083487028
Transform:
  m_ObjectHideFlags: 0
  m_CorrespondingSourceObject: {fileID: 0}
  m_PrefabInstance: {fileID: 0}
  m_PrefabAsset: {fileID: 0}
  m_GameObject: {fileID: 2721478984083487026}
  m_LocalRotation: {x: 0, y: 0, z: 0, w: 1}
  m_LocalPosition: {x: 20.64, y: 10.56, z: 0}
  m_LocalScale: {x: 3.5, y: 3.5, z: 1}
  m_Children: []
  m_Father: {fileID: 0}
  m_RootOrder: 0
  m_LocalEulerAnglesHint: {x: 0, y: 0, z: 0}
--- !u!212 &2721478984083487029
SpriteRenderer:
  m_ObjectHideFlags: 0
  m_CorrespondingSourceObject: {fileID: 0}
  m_PrefabInstance: {fileID: 0}
  m_PrefabAsset: {fileID: 0}
  m_GameObject: {fileID: 2721478984083487026}
  m_Enabled: 1
  m_CastShadows: 0
  m_ReceiveShadows: 0
  m_DynamicOccludee: 1
  m_MotionVectors: 1
  m_LightProbeUsage: 1
  m_ReflectionProbeUsage: 1
  m_RenderingLayerMask: 1
  m_RendererPriority: 0
  m_Materials:
  - {fileID: 10754, guid: 0000000000000000f000000000000000, type: 0}
  m_StaticBatchInfo:
    firstSubMesh: 0
    subMeshCount: 0
  m_StaticBatchRoot: {fileID: 0}
  m_ProbeAnchor: {fileID: 0}
  m_LightProbeVolumeOverride: {fileID: 0}
  m_ScaleInLightmap: 1
  m_ReceiveGI: 1
  m_PreserveUVs: 0
  m_IgnoreNormalsForChartDetection: 0
  m_ImportantGI: 0
  m_StitchLightmapSeams: 1
  m_SelectedEditorRenderState: 0
  m_MinimumChartSize: 4
  m_AutoUVMaxDistance: 0.5
  m_AutoUVMaxAngle: 89
  m_LightmapParameters: {fileID: 0}
  m_SortingLayerID: 0
  m_SortingLayer: 0
  m_SortingOrder: 2
  m_Sprite: {fileID: 21300000, guid: 7fc031cbcb807594e9ccc705ba9da6b4, type: 3}
  m_Color: {r: 1, g: 1, b: 1, a: 1}
  m_FlipX: 0
  m_FlipY: 0
  m_DrawMode: 0
  m_Size: {x: 1.92, y: 1.92}
  m_AdaptiveModeThreshold: 0.5
  m_SpriteTileMode: 0
  m_WasSpriteAssigned: 1
  m_MaskInteraction: 0
  m_SpriteSortPoint: 0
--- !u!60 &-300516905384075257
PolygonCollider2D:
  m_ObjectHideFlags: 0
  m_CorrespondingSourceObject: {fileID: 0}
  m_PrefabInstance: {fileID: 0}
  m_PrefabAsset: {fileID: 0}
  m_GameObject: {fileID: 2721478984083487026}
  m_Enabled: 1
  m_Density: 1
  m_Material: {fileID: 0}
  m_IsTrigger: 0
  m_UsedByEffector: 0
  m_UsedByComposite: 0
  m_Offset: {x: 0, y: 0}
  m_SpriteTilingProperty:
    border: {x: 0, y: 0, z: 0, w: 0}
    pivot: {x: 0.5, y: 0.5}
    oldSize: {x: 1.92, y: 1.92}
    newSize: {x: 1.92, y: 1.92}
    adaptiveTilingThreshold: 0.5
    drawMode: 0
    adaptiveTiling: 0
  m_AutoTiling: 0
  m_Points:
    m_Paths:
    - - {x: 0.22999999, y: -0.77}
      - {x: 0.28, y: -0.77}
      - {x: 0.41, y: -0.64}
      - {x: 0.47, y: -0.71}
      - {x: 0.65, y: -0.77}
      - {x: 0.79999995, y: -0.79999995}
      - {x: 0.93, y: -0.79999995}
      - {x: 0.96, y: -0.77}
      - {x: 0.96, y: -0.48999998}
      - {x: 0.89, y: -0.48999998}
      - {x: 0.91999996, y: -0.42999998}
      - {x: 0.91999996, y: -0.29999998}
      - {x: 0.88, y: -0.25}
      - {x: 0.81, y: -0.25}
      - {x: 0.78999996, y: -0.26999998}
      - {x: 0.71, y: -0.39999998}
      - {x: 0.71, y: -0.17}
      - {x: 0.65, y: -0.12}
      - {x: 0.68, y: -0.07}
      - {x: 0.71, y: 0.02}
      - {x: 0.71999997, y: 0.16}
      - {x: 0.76, y: 0.11}
      - {x: 0.76, y: 0}
      - {x: 0.78, y: -0.02}
      - {x: 0.84999996, y: -0.03}
      - {x: 0.91999996, y: 0.049999997}
      - {x: 0.96, y: 0.12}
      - {x: 0.96, y: 0.44}
      - {x: 0.87, y: 0.53}
      - {x: 0.82, y: 0.56}
      - {x: 0.71999997, y: 0.56}
      - {x: 0.71, y: 0.61}
      - {x: 0.65999997, y: 0.72999996}
      - {x: 0.52, y: 0.85999995}
      - {x: 0.39999998, y: 0.91999996}
      - {x: 0.25, y: 0.96}
      - {x: -0.32999998, y: 0.96}
      - {x: -0.39, y: 0.95}
      - {x: -0.45999998, y: 0.93}
      - {x: -0.59, y: 0.78999996}
      - {x: -0.65999997, y: 0.82}
      - {x: -0.77, y: 0.91999996}
      - {x: -0.84999996, y: 0.94}
      - {x: -0.88, y: 0.83}
      - {x: -0.79999995, y: 0.71}
      - {x: -0.89, y: 0.77}
      - {x: -0.96, y: 0.77}
      - {x: -0.96, y: 0.65999997}
      - {x: -0.90999997, y: 0.53}
      - {x: -0.96, y: 0.48}
      - {x: -0.96, y: 0.25}
      - {x: -0.91999996, y: 0.16}
      - {x: -0.91999996, y: 0}
      - {x: -0.89, y: -0.04}
      - {x: -0.82, y: -0.11}
      - {x: -0.84999996, y: -0.12}
      - {x: -0.91999996, y: -0.19999999}
      - {x: -0.91999996, y: -0.39}
      - {x: -0.9, y: -0.45}
      - {x: -0.96, y: -0.51}
      - {x: -0.96, y: -0.68}
      - {x: -0.93, y: -0.71}
      - {x: -0.79999995, y: -0.71999997}
      - {x: -0.89, y: -0.85999995}
      - {x: -0.89, y: -0.93}
      - {x: -0.87, y: -0.95}
      - {x: -0.79999995, y: -0.96}
      - {x: -0.59, y: -0.75}
      - {x: -0.71, y: -0.91999996}
      - {x: -0.71, y: -0.96}
      - {x: 0.56, y: -0.96}
      - {x: 0.57, y: -0.91999996}
      - {x: 0.45999998, y: -0.82}
      - {x: 0.32, y: -0.82}
    - - {x: -0.45, y: -0.59999996}
      - {x: -0.47, y: -0.56}
      - {x: -0.57, y: -0.45}
      - {x: -0.63, y: -0.39}
      - {x: -0.45, y: -0.51}
      - {x: -0.45, y: -0.59999996}
      - {x: -0.42, y: -0.66999996}
      - {x: -0.42, y: -0.78}
      - {x: -0.45, y: -0.78}
      - {x: -0.45999998, y: -0.78999996}
      - {x: -0.45, y: -0.78999996}
--- !u!114 &-1403847234173260383
MonoBehaviour:
  m_ObjectHideFlags: 0
  m_CorrespondingSourceObject: {fileID: 0}
  m_PrefabInstance: {fileID: 0}
  m_PrefabAsset: {fileID: 0}
  m_GameObject: {fileID: 2721478984083487026}
  m_Enabled: 1
  m_EditorHideFlags: 0
  m_Script: {fileID: 11500000, guid: 731f4688a44829d499b0876fbff672cc, type: 3}
  m_Name: 
  m_EditorClassIdentifier: 
  maxHealth: 20
